20

C          2.41510        0.90010       -0.10054
C          0.88923        0.77276       -0.13639
C          0.48512       -0.69874        0.07070
H          0.77806       -1.03203        1.07525
H          1.03834       -1.33615       -0.63098
C         -0.97503       -0.94992       -0.11643
N         -1.94763       -0.10863        0.36803
H         -1.77196        0.76175        0.85911
C         -3.15883       -0.63311        0.02741
H         -4.09375       -0.15405        0.28445
N         -3.02537       -1.75921       -0.63515
C         -1.67305       -1.96723       -0.72958
H         -1.27584       -2.83866       -1.23424
N          0.28905        1.65923        0.91181
O          3.06365        1.53275        0.71991
O          3.03096        0.26153       -1.11278
H          0.54516        1.14015       -1.11048
H          0.62109        2.61094        0.72656
H          0.74383        1.42451        1.80086
H          3.98458        0.44961       -0.98036
