20

C          1.93516        0.28422       -1.59876
C          1.08412       -0.62004       -0.69986
C          0.30212        0.22247        0.31514
H          0.99730        0.89288        0.83752
H         -0.40586        0.87066       -0.21704
C         -0.42456       -0.64766        1.33949
H         -1.15955       -1.30856        0.86968
H          0.29909       -1.28304        1.86137
S         -1.26221        0.36374        2.60777
C         -2.71118        0.88732        1.65760
H         -2.41764        1.52135        0.81790
H         -3.26178        0.01745        1.29018
H         -3.37363        1.46504        2.30789
N          0.15644       -1.42440       -1.53038
O          2.94157        0.89040       -0.94044
O          1.78423        0.45875       -2.79880
H          1.76335       -1.31268       -0.18968
H          0.71474       -1.96290       -2.19747
H         -0.37359       -0.78133       -2.12546
H          3.40223        1.41466       -1.62909
