30

C -3.348330 -0.233190 0.919240
 C -2.168950 0.524120 0.881920
 C -0.908210 -0.091830 1.089160
 C -0.925260 -1.446170 1.480070
 C -2.102490 -2.193950 1.516650
 C -3.316700 -1.590560 1.217200
 H -4.321330 0.246740 0.720770
 C -2.274930 1.996640 0.546710
 H -1.598740 2.229670 -0.306880
 H -0.011220 -1.937170 1.848940
 H -2.074550 -3.254020 1.820200
 H -4.251960 -2.174210 1.254260
 C 2.486180 0.769900 1.625440
 C 3.775220 0.233710 1.620530
 C 4.035870 -0.965250 0.972790
 C 3.011020 -1.593850 0.278740
 C 1.707990 -1.085590 0.294680 
C 1.380920 0.088830 1.039640
 H 0.100660 1.690030 1.257900
 H 4.598410 0.756190 2.137040
 H 5.058020 -1.380680 0.958270
 H 3.252530 -2.485890 -0.324290
 Cl 0.632630 -1.930580 -0.804360
 N 0.185420 0.609710 1.109690
 Cl 2.309690 2.266160 2.511450
 C -1.943780 2.899780 1.730900
 O -0.957690 3.599000 1.843730
 O -2.895750 2.866960 2.689470
 H -2.566120 3.465250 3.384290
 H -3.302360 2.236240 0.189790
